{
    "prepare_queue": {
        "installed": [],
        "uninstalled": []
    },
    "config_munge": {
        "files": {
            "AndroidManifest.xml": {
                "parents": {
                    "/manifest/application": [
                        {
                            "xml": "<meta-data android:name=\"com.google.android.gms.version\" android:value=\"@integer/google_play_services_version\" />",
                            "count": 1
                        },
                        {
                            "xml": "<activity android:configChanges=\"keyboard|keyboardHidden|orientation|screenLayout|uiMode|screenSize|smallestScreenSize\" android:name=\"com.google.android.gms.ads.AdActivity\" android:theme=\"@android:style/Theme.Translucent\" />",
                            "count": 1
                        },
                        {
                            "xml": "<activity android:configChanges=\"keyboardHidden|orientation|keyboard\" android:name=\"com.millennialmedia.android.MMActivity\" android:theme=\"@android:style/Theme.Translucent.NoTitleBar\" />",
                            "count": 1
                        },
                        {
                            "xml": "<activity android:name=\"com.arellomobile.android.push.PushWebview\" />",
                            "count": 1
                        },
                        {
                            "xml": "<activity android:name=\"com.arellomobile.android.push.MessageActivity\" />",
                            "count": 1
                        },
                        {
                            "xml": "<activity android:name=\"com.arellomobile.android.push.PushHandlerActivity\" />",
                            "count": 1
                        },
                        {
                            "xml": "<activity android:label=\"@string/app_name\" android:name=\"com.facebook.LoginActivity\" />",
                            "count": 1
                        },
                        {
                            "xml": "<receiver android:name=\"com.google.android.gcm.GCMBroadcastReceiver\" android:permission=\"com.google.android.c2dm.permission.SEND\"><intent-filter><action android:name=\"com.google.android.c2dm.intent.RECEIVE\" /><action android:name=\"com.google.android.c2dm.intent.REGISTRATION\" /><category android:name=\"com.ionicframework.starter\" /></intent-filter></receiver>",
                            "count": 1
                        },
                        {
                            "xml": "<service android:name=\"com.arellomobile.android.push.PushGCMIntentService\" />",
                            "count": 1
                        },
                        {
                            "xml": "<service android:name=\"com.arellomobile.android.push.GeoLocationService\" />",
                            "count": 1
                        },
                        {
                            "xml": "<receiver android:name=\"com.arellomobile.android.push.AlarmReceiver\" />",
                            "count": 1
                        }
                    ],
                    "/*": [
                        {
                            "xml": "<uses-permission android:name=\"android.permission.INTERNET\" />",
                            "count": 2
                        },
                        {
                            "xml": "<uses-permission android:name=\"android.permission.ACCESS_NETWORK_STATE\" />",
                            "count": 2
                        },
                        {
                            "xml": "<uses-permission android:name=\"android.permission.RECORD_AUDIO\" />",
                            "count": 1
                        },
                        {
                            "xml": "<uses-permission android:name=\"android.permission.WRITE_EXTERNAL_STORAGE\" />",
                            "count": 4
                        },
                        {
                            "xml": "<uses-feature android:name=\"android.hardware.microphone\" android:required=\"false\" />",
                            "count": 1
                        }
                    ],
                    "/manifest": [
                        {
                            "xml": "<uses-permission android:name=\"android.permission.ACCESS_NETWORK_STATE\" />",
                            "count": 1
                        },
                        {
                            "xml": "<uses-permission android:name=\"android.permission.READ_PHONE_STATE\" />",
                            "count": 1
                        },
                        {
                            "xml": "<uses-permission android:name=\"android.permission.INTERNET\" />",
                            "count": 1
                        },
                        {
                            "xml": "<uses-permission android:name=\"android.permission.GET_ACCOUNTS\" />",
                            "count": 1
                        },
                        {
                            "xml": "<uses-permission android:name=\"android.permission.WAKE_LOCK\" />",
                            "count": 1
                        },
                        {
                            "xml": "<permission android:name=\"com.ionicframework.starter.permission.C2D_MESSAGE\" android:protectionLevel=\"signature\" />",
                            "count": 1
                        },
                        {
                            "xml": "<uses-permission android:name=\"com.ionicframework.starter.permission.C2D_MESSAGE\" />",
                            "count": 1
                        },
                        {
                            "xml": "<uses-permission android:name=\"com.google.android.c2dm.permission.RECEIVE\" />",
                            "count": 1
                        },
                        {
                            "xml": "<uses-permission android:name=\"android.permission.VIBRATE\" />",
                            "count": 1
                        }
                    ],
                    "/manifest/application/activity": [
                        {
                            "xml": "<intent-filter><action android:name=\"com.ionicframework.starter.MESSAGE\" /><category android:name=\"android.intent.category.DEFAULT\" /></intent-filter>",
                            "count": 1
                        }
                    ]
                }
            },
            "res/xml/config.xml": {
                "parents": {
                    "/*": [
                        {
                            "xml": "<feature name=\"AdMob\"><param name=\"android-package\" value=\"com.rjfun.cordova.admob.AdMobPlugin\" /></feature>",
                            "count": 1
                        },
                        {
                            "xml": "<feature name=\"Keyboard\"><param name=\"android-package\" value=\"com.ionic.keyboard.IonicKeyboard\" /><param name=\"onload\" value=\"true\" /></feature>",
                            "count": 1
                        },
                        {
                            "xml": "<feature name=\"VideoPlayer\"><param name=\"android-package\" value=\"com.moust.cordova.videoplayer.VideoPlayer\" /></feature>",
                            "count": 1
                        },
                        {
                            "xml": "<feature name=\"PushNotification\"><param name=\"android-package\" onload=\"true\" value=\"com.pushwoosh.plugin.pushnotifications.PushNotifications\" /></feature>",
                            "count": 1
                        },
                        {
                            "xml": "<feature name=\"mMedia\"><param name=\"android-package\" value=\"com.rjfun.cordova.mmedia.mMediaAdPlugin\" /></feature>",
                            "count": 1
                        },
                        {
                            "xml": "<feature name=\"YoikScreenOrientation\"><param name=\"android-package\" value=\"net.yoik.cordova.plugins.screenorientation.YoikScreenOrientation\" /></feature>",
                            "count": 1
                        },
                        {
                            "xml": "<feature name=\"Toast\"><param name=\"android-package\" value=\"nl.xservices.plugins.Toast\" /></feature>",
                            "count": 1
                        },
                        {
                            "xml": "<feature name=\"Camera\"><param name=\"android-package\" value=\"org.apache.cordova.camera.CameraLauncher\" /></feature>",
                            "count": 1
                        },
                        {
                            "xml": "<feature name=\"Device\"><param name=\"android-package\" value=\"org.apache.cordova.device.Device\" /></feature>",
                            "count": 1
                        },
                        {
                            "xml": "<feature name=\"File\"><param name=\"android-package\" value=\"org.apache.cordova.file.FileUtils\" /><param name=\"onload\" value=\"true\" /></feature>",
                            "count": 1
                        },
                        {
                            "xml": "<feature name=\"FileTransfer\"><param name=\"android-package\" value=\"org.apache.cordova.filetransfer.FileTransfer\" /></feature>",
                            "count": 1
                        },
                        {
                            "xml": "<feature name=\"InAppBrowser\"><param name=\"android-package\" value=\"org.apache.cordova.inappbrowser.InAppBrowser\" /></feature>",
                            "count": 1
                        },
                        {
                            "xml": "<feature name=\"SplashScreen\"><param name=\"android-package\" value=\"org.apache.cordova.splashscreen.SplashScreen\" /></feature>",
                            "count": 1
                        },
                        {
                            "xml": "<feature name=\"Vibration\"><param name=\"android-package\" value=\"org.apache.cordova.vibration.Vibration\" /></feature>",
                            "count": 1
                        }
                    ]
                }
            },
            "undefined": {
                "parents": {
                    "undefined": [
                        {
                            "xml": "<access origin=\"*.pushwoosh.com\" />",
                            "count": 1
                        }
                    ]
                }
            }
        }
    },
    "installed_plugins": {
        "com.google.admobsdk": {
            "PACKAGE_NAME": "com.ionicframework.starter"
        },
        "com.google.cordova.admob": {
            "PACKAGE_NAME": "com.ionicframework.starter"
        },
        "com.ionic.keyboard": {
            "PACKAGE_NAME": "com.ionicframework.starter"
        },
        "com.mmedia.sdk": {
            "PACKAGE_NAME": "com.ionicframework.starter"
        },
        "com.moust.cordova.videoplayer": {
            "PACKAGE_NAME": "com.ionicframework.starter"
        },
        "com.pushwoosh.plugins.pushwoosh": {
            "PACKAGE_NAME": "com.ionicframework.starter"
        },
        "com.rjfun.cordova.mmedia": {
            "PACKAGE_NAME": "com.ionicframework.starter"
        },
        "net.yoik.cordova.plugins.screenorientation": {
            "PACKAGE_NAME": "com.ionicframework.starter"
        },
        "nl.x-services.plugins.toast": {
            "PACKAGE_NAME": "com.ionicframework.starter"
        },
        "org.apache.cordova.camera": {
            "PACKAGE_NAME": "com.ionicframework.starter"
        },
        "org.apache.cordova.console": {
            "PACKAGE_NAME": "com.ionicframework.starter"
        },
        "org.apache.cordova.device": {
            "PACKAGE_NAME": "com.ionicframework.starter"
        },
        "org.apache.cordova.file": {
            "PACKAGE_NAME": "com.ionicframework.starter"
        },
        "org.apache.cordova.file-transfer": {
            "PACKAGE_NAME": "com.ionicframework.starter"
        },
        "org.apache.cordova.inappbrowser": {
            "PACKAGE_NAME": "com.ionicframework.starter"
        },
        "org.apache.cordova.splashscreen": {
            "PACKAGE_NAME": "com.ionicframework.starter"
        },
        "org.apache.cordova.vibration": {
            "PACKAGE_NAME": "com.ionicframework.starter"
        }
    },
    "dependent_plugins": {
        "com.google.playservices": {
            "PACKAGE_NAME": "com.ionicframework.starter"
        },
        "com.rjfun.cordova.ext": {
            "PACKAGE_NAME": "com.ionicframework.starter"
        },
        "com.rjfun.cordova.ad": {
            "PACKAGE_NAME": "com.ionicframework.starter"
        }
    }
}